Munear Abousaud 21 11 2020
Roderick Adams 22 07 2020
Joseph Anand 21 28 2020
Nicholas Baietto 19 21 2020
Dean Bartschi 19 35 2020
Grace Biagetti 22 28 2020
Dominic Buraglio 21 14 2020
Cage Campbell 20 07 2020
Andrew Christensen 21 09 2020
Matthew Claar 18 29 2020
Bailey Compton 20 16 2020
Joseph Crisostomo 18 12 2020
Tricia Dang 17 05 2020
Noah Diamond 17 37 2020
Jacob Dimmitt 23 08 2020
Hunter Doster 21 05 2020
Devin Doyle 23 09 2020
Benjamin Duncan 21 01 2020
Sierra Ernst 23 33 2020
Evan Gabrielsen 20 37 2020
Anthony Giaimo 21 19 2020
Garret Gwozdz 23 25 2020
William Hanlen 23 34 2020
Dallas Huff 17 12 2020
Kyle Kauffman 17 23 2020
Alexander Knight 23 36 2020
Jonathan Kordes 21 18 2020
Matthew Kuhn 19 29 2020
Patrick Lagator 19 16 2020
Helen Landwehr 19 24 2020
Joe Laniado 17 08 2020
Esther Lee 22 27 2020
Alexander Lytle 20 25 2020
Brett Martin 21 17 2020
Anna Mendenhall 20 28 2020
Logan Nelson 19 24 2020
Jonathan Nicholson 22 39 2020
Ludvig Oliver 20 29 2020
Kishan Patel 20 28 2020
Dustin Priaulx 18 39 2020
Allison Raines 21 05 2020
Marc Rees 20 24 2020
James Roberts 20 13 2020
Timothy Santos 20 40 2020
Katherine Scheibner 20 38 2020
Sears Schulz 19 15 2020
AndreaCristiano Seazzu 22 04 2020
Maya Slavin 22 12 2020
Robert Sood 18 12 2020
Michael Strohlein 20 21 2020
Christian Sylvester 22 32 2020
Madison Tung 17 35 2019
Maxwell Turner 22 16 2020
Andrew Weiss 18 21 2020
Allison Wong 19 32 2020